"TEAM","WIN.PERC","SoS.MULT","SIM.WINS","SIM.LOSSES","SIM.PERC","RANK.SCORE","RANK","SIMURANK"
"Air Force",0.769230769230769,0.810004359108916,6474,6126,0.513809523809524,0.586656692094926,35,60
"Akron",0.416666666666667,0.771173375964369,3955,8645,0.313888888888889,0.318844456286399,97,100
"Alabama",0.857142857142857,0.924735758886179,10710,1890,0.85,0.811753766982578,5,4
"Appalachian State",0.583333333333333,0.751910415528339,4983,7617,0.39547619047619,0.424235002864195,78,90
"Arizona",0.714285714285714,0.92202349623189,8784,3816,0.697142857142857,0.671439760110424,19,23
"Arizona State",0.769230769230769,0.880760611902237,8149,4451,0.646746031746032,0.667254119249825,20,32
"Arkansas",0.538461538461538,0.958490249567638,8009,4591,0.635634920634921,0.555951729800023,42,35
"Arkansas State",0.583333333333333,0.784331815046303,6436,6164,0.510793650793651,0.475282478338113,64,62
"Army",0.333333333333333,0.837372860614188,2455,10145,0.19484126984127,0.251029947861354,108,122
"Auburn",0.615384615384615,1,9282,3318,0.736666666666667,0.655811965811966,22,17
"Ball State",0.416666666666667,0.802021358810036,4100,8500,0.325396825396825,0.331249319246174,93,98
"Baylor",0.846153846153846,0.837333346003572,10033,2567,0.796269841269841,0.737765167912475,10,7
"Boise State",0.857142857142857,0.882134169550713,9075,3525,0.720238095238095,0.744156033394058,8,21
"Boston College",0.538461538461538,0.897913782654121,7521,5079,0.596904761904762,0.521296278510759,55,42
"Bowling Green",0.571428571428571,0.83225781783574,5060,7540,0.401587301587302,0.450913031133192,73,87
"Buffalo",0.454545454545455,0.75438881322685,3510,9090,0.278571428571429,0.321459813531946,96,107
"BYU",0.615384615384615,0.821061963580848,8299,4301,0.658650793650794,0.556396198327023,41,31
"California",0.416666666666667,0.916249196149777,7572,5028,0.600952380952381,0.454831125914621,70,41
"Central Michigan",0.538461538461538,0.782541475133097,5273,7327,0.418492063492063,0.420409678904107,80,82
"Cincinnati",0.692307692307692,0.820864517416134,7634,4966,0.605873015873016,0.580818218457426,36,40
"Clemson",0.769230769230769,0.908149282352374,9556,3044,0.758412698412698,0.718521813497758,13,12
"Colorado",0.166666666666667,0.951819642082175,5714,6886,0.453492063492064,0.256921759173152,105,78
"Colorado State",0.769230769230769,0.841895551685438,7180,5420,0.56984126984127,0.621688398503725,26,47
"Connecticut",0.166666666666667,0.840653524202281,2217,10383,0.175952380952381,0.15205674078438,123,124
"Duke",0.692307692307692,0.780797551441647,6915,5685,0.548809523809524,0.543304608601883,47,52
"East Carolina",0.666666666666667,0.783689112912318,6802,5798,0.53984126984127,0.528253362352565,51,54
"Eastern Michigan",0.166666666666667,0.852971895021522,1194,11406,0.0947619047619048,0.126361956589693,124,126
"Florida",0.545454545454545,0.936128004145046,8658,3942,0.687142857142857,0.56945780237309,37,25
"Florida Atlantic",0.25,0.854105669345776,3208,9392,0.254603174603175,0.227218669758688,113,113
"Florida International",0.333333333333333,0.844073325500756,4220,8380,0.334920634920635,0.299212061751491,98,97
"Florida State",0.928571428571429,0.910838751333824,9578,3022,0.76015873015873,0.817238803735754,3,11
"Fresno State",0.428571428571429,0.871278269433187,4852,7748,0.385079365079365,0.37729643676927,89,93
"Georgia",0.769230769230769,0.913341845331089,10243,2357,0.812936507936508,0.739359269481959,9,5
"Georgia Southern",0.75,0.75,6717,5883,0.533095238095238,0.552698412698413,43,56
"Georgia State",0.0833333333333333,0.858101737445151,2519,10081,0.199920634920635,0.114312530387164,126,120
"Georgia Tech",0.785714285714286,0.924613254526339,9307,3293,0.738650793650794,0.730538159778347,11,16
"Hawaii",0.307692307692308,0.842162036481069,3988,8612,0.316507936507937,0.278253832473121,102,99
"Houston",0.583333333333333,0.796143388983902,6385,6215,0.506746031746032,0.478526661853528,63,64
"Idaho",0.0909090909090909,0.803428087944982,2800,9800,0.222222222222222,0.122766685464679,125,119
"Illinois",0.461538461538462,0.925476252519336,5103,7497,0.405,0.419761923852103,82,85
"Indiana",0.333333333333333,0.914125666530151,5064,7536,0.401904761904762,0.337107290974954,92,86
"Iowa",0.583333333333333,0.848720725474843,6665,5935,0.528968253968254,0.506380811229635,59,57
"Iowa State",0.166666666666667,0.927413643844284,4626,7974,0.367142857142857,0.225426912808095,114,95
"Kansas",0.25,0.915432377407392,3623,8977,0.287539682539683,0.248418623747793,109,105
"Kansas State",0.75,0.890448703070373,8787,3813,0.697380952380952,0.677684668995504,18,22
"Kent State",0.181818181818182,0.837726087695625,3089,9511,0.24515873015873,0.183262132803895,118,116
"Kentucky",0.416666666666667,0.911260082002945,6300,6300,0.5,0.41979446722304,81,67
"Louisiana-Lafayette",0.692307692307692,0.818504763910817,4910,7690,0.38968253968254,0.50766560939148,58,91
"Louisiana-Monroe",0.333333333333333,0.812413533284775,3377,9223,0.268015873015873,0.269874965068574,104,109
"Louisiana Tech",0.642857142857143,0.87887146236344,8591,4009,0.681825396825397,0.603934330430893,32,26
"Louisville",0.692307692307692,0.862858197691951,8039,4561,0.638015873015873,0.61091420276055,28,34
"LSU",0.615384615384615,0.930239329499417,8772,3828,0.696190476190476,0.613700140063253,27,24
"Marshall",0.928571428571429,0.778481538429891,10024,2576,0.795555555555556,0.747102328022736,7,8
"Maryland",0.538461538461538,0.912103793823863,6454,6146,0.512222222222222,0.498162615446743,61,61
"Massachusetts",0.25,0.761499357141155,3667,8933,0.291031746031746,0.223927141534108,115,104
"Memphis",0.769230769230769,0.7775106108712,7742,4858,0.614444444444444,0.603538205005174,33,38
"Miami (FL)",0.461538461538462,0.959987610876377,8066,4534,0.64015873015873,0.508767046732821,57,33
"Miami (OH)",0.166666666666667,0.837901428817455,3329,9271,0.264206349206349,0.181168941826278,119,111
"Michigan",0.416666666666667,0.926313435092216,7476,5124,0.593333333333333,0.455087065303393,69,43
"Michigan State",0.846153846153846,0.89595254823239,10231,2369,0.811984126984127,0.776070505433493,6,6
"Middle Tennessee",0.5,0.83622230153711,5605,6995,0.44484126984127,0.42702119045946,77,79
"Minnesota",0.615384615384615,0.917251524127533,6867,5733,0.545,0.55797498425745,40,53
"Mississippi State",0.769230769230769,0.893063627472774,9771,2829,0.77547619047619,0.716473410913999,14,9
"Missouri",0.785714285714286,0.916159590941606,8509,4091,0.67531746031746,0.704998939170471,16,28
"Navy",0.615384615384615,0.926360595271101,6799,5801,0.539603174603175,0.559913097286638,39,55
"Nebraska",0.692307692307692,0.878220583636921,9320,3280,0.73968253968254,0.651893423624041,23,15
"Nevada",0.538461538461538,0.857175179327539,6180,6420,0.49047619047619,0.471195974019898,65,69
"New Mexico",0.333333333333333,0.871250409630216,5020,7580,0.398412698412698,0.326415434944281,95,88
"New Mexico State",0.166666666666667,0.788146265537246,3317,9283,0.263253968253968,0.175323130033239,121,112
"North Carolina",0.461538461538462,0.926428059592125,5869,6731,0.465793650793651,0.440319337831358,76,74
"North Carolina State",0.615384615384615,0.901592016972536,6202,6398,0.492222222222222,0.533957978473063,49,68
"North Texas",0.333333333333333,0.751923981154952,2856,9744,0.226666666666667,0.242649773589989,110,117
"Northern Illinois",0.785714285714286,0.776845905276071,4827,7773,0.383095238095238,0.53461769641445,48,94
"Northwestern",0.416666666666667,0.895544155218785,6159,6441,0.488809523809524,0.411698773275059,84,70
"Notre Dame",0.615384615384615,0.924709679816351,8500,4100,0.674603174603175,0.604235798638535,31,29
"Ohio",0.5,0.794129639976417,3600,9000,0.285714285714286,0.359947975230234,91,106
"Ohio State",0.928571428571429,0.91483453901007,10843,1757,0.860555555555556,0.853177995048562,1,3
"Oklahoma",0.615384615384615,0.875637067951796,9500,3100,0.753968253968254,0.610558471508104,29,13
"Oklahoma State",0.5,0.886448755938766,6310,6290,0.500793650793651,0.462414135577472,67,66
"Old Dominion",0.5,0.826169489978638,5246,7354,0.416349206349206,0.414172898775948,83,83
"Ole Miss",0.692307692307692,0.965597299535267,9615,2985,0.763095238095238,0.700025371458279,17,10
"Oregon",0.928571428571429,0.893697229866175,10993,1607,0.872460317460317,0.844061248118214,2,2
"Oregon State",0.416666666666667,0.883790313602151,5016,7584,0.398095238095238,0.378195722032344,88,89
"Penn State",0.538461538461538,0.885220840266126,6946,5654,0.551269841269841,0.50152819744189,60,50
"Pittsburgh",0.5,0.856555067304512,6568,6032,0.521269841269841,0.459274969524784,68,59
"Purdue",0.25,0.913063762326279,5124,7476,0.406666666666667,0.287732849276602,101,84
"Rice",0.615384615384615,0.832181073922471,5525,7075,0.438492063492063,0.487571641234778,62,80
"Rutgers",0.615384615384615,0.906596361046147,6073,6527,0.481984126984127,0.532598344295692,50,73
"San Diego State",0.538461538461538,0.805574536491817,5791,6809,0.459603174603175,0.442381661044275,75,75
"SMU",0.0833333333333333,0.881379395836441,787,11813,0.0624603174603175,0.0697856278110192,127,127
"South Alabama",0.461538461538462,0.81841150206647,4867,7733,0.386269841269841,0.380575537469374,87,92
"South Carolina",0.538461538461538,0.910672422183908,7177,5423,0.569603174603175,0.51677577385682,56,48
"South Florida",0.333333333333333,0.851392713366362,2474,10126,0.196349206349206,0.254648116197816,106,121
"Southern Miss",0.25,0.908877612246932,3188,9412,0.253015873015873,0.23581822637978,111,115
"Stanford",0.615384615384615,0.947056545303724,9477,3123,0.752142857142857,0.639250304300429,24,14
"Syracuse",0.25,0.935379173743414,5301,7299,0.420714285714286,0.296134624195331,100,81
"TCU",0.923076923076923,0.845014749827276,11048,1552,0.876825396825397,0.812284209091917,4,1
"Temple",0.5,0.810679291795736,5720,6880,0.453968253968254,0.42154918192133,79,77
"Tennessee",0.5,0.952116896038679,7896,4704,0.626666666666667,0.526261187568449,53,36
"Texas",0.461538461538462,0.901640592266118,6659,5941,0.528492063492063,0.453591895707442,71,58
"Texas A&M",0.615384615384615,0.936124142839971,8490,4110,0.673809523809524,0.60865410499906,30,30
"Texas State",0.583333333333333,0.754342997198628,4428,8172,0.351428571428571,0.410498467164546,85,96
"Texas Tech",0.333333333333333,0.894537471309502,6094,6506,0.483650793650794,0.360003035952376,90,71
"Toledo",0.666666666666667,0.821984686324405,6093,6507,0.483571428571429,0.526517003445767,52,72
"Troy",0.25,0.796291681362527,1619,10981,0.128492063492063,0.175545968057776,120,125
"Tulane",0.25,0.888906189980104,3202,9398,0.254126984126984,0.232860026372345,112,114
"Tulsa",0.166666666666667,0.83909765207303,2853,9747,0.226428571428571,0.168709262928749,122,118
"UAB",0.5,0.846215315409578,6342,6258,0.503333333333333,0.44984954958097,74,65
"UCF",0.692307692307692,0.798561413085056,6945,5655,0.551190476190476,0.552296964769415,44,51
"UCLA",0.75,0.95721173348492,9150,3450,0.726190476190476,0.720669358805952,12,19
"UNLV",0.153846153846154,0.871802453013072,3668,8932,0.291111111111111,0.186452673243506,117,103
"USC",0.692307692307692,0.910813232781024,9197,3403,0.729920634920635,0.663682216513505,21,18
"Utah",0.692307692307692,0.921264418416893,7707,4893,0.611666666666667,0.629087851235147,25,39
"Utah State",0.714285714285714,0.85055509542792,6994,5606,0.555079365079365,0.590052690944512,34,49
"UTEP",0.538461538461538,0.810060921200808,3720,8880,0.295238095238095,0.389203798330937,86,102
"UTSA",0.333333333333333,0.833521482289846,3367,9233,0.267222222222222,0.274301070138484,103,110
"Vanderbilt",0.25,0.915008590931435,3798,8802,0.301428571428571,0.252977622298096,107,101
"Virginia",0.416666666666667,0.931885370828088,7291,5309,0.578650793650794,0.451740645335845,72,46
"Virginia Tech",0.538461538461538,0.918942407941197,7375,5225,0.58531746031746,0.524982581930865,54,44
"Wake Forest",0.25,0.898155829955201,2389,10211,0.189603174603175,0.212893696526925,116,123
"Washington",0.615384615384615,0.877786024462486,7892,4708,0.626349206349206,0.568900412152294,38,37
"Washington State",0.25,0.948241426651612,6389,6211,0.507063492063492,0.327061401796433,94,63
"West Virginia",0.538461538461538,0.896838427333537,8581,4019,0.681031746031746,0.548952581566211,45,27
"Western Kentucky",0.615384615384615,0.860404704688521,7339,5261,0.582460317460317,0.547139984666678,46,45
"Western Michigan",0.615384615384615,0.770107610185777,5790,6810,0.45952380952381,0.469116186840563,66,76
"Wisconsin",0.785714285714286,0.893708375918004,9106,3494,0.722698412698413,0.709032429713663,15,20
"Wyoming",0.333333333333333,0.929864979813959,3434,9166,0.272539682539683,0.297483223027441,99,108
