TEAM,ELO,GAMES,RANK
Air Force,1526.5419,5,62
Akron,1453.3571,6,72
Alabama,1873.615,6,26
Appalachian State,1502.3466,5,65
Arizona,1479.6425,5,69
Arizona State,1513.7598,6,64
Arkansas,1556.6325,6,59
Arkansas State,1289.8665,5,88
Army,881.5574,6,123
Auburn,1652.7655,4,48
Ball State,1289.2228,5,89
Baylor,2105.1451,5,8
Boise State,1815.1166,6,35
Boston College,1468.8591,6,70
Bowling Green,1614.8484,6,51
Buffalo,1403.5317,4,77
BYU,1934.0739,6,20
California,1845.0691,5,32
Central Michigan,1374.8616,6,80
Charlotte,955.6883,5,120
Cincinnati,1655.4959,5,47
Clemson,2231.5188,5,3
Colorado,1294.2795,6,87
Colorado State,1172.2317,6,102
Connecticut,1303.0583,6,86
Duke,1790.5921,6,40
East Carolina,1575.3484,6,56
Eastern Michigan,885.3703,6,122
Florida,2078.6586,6,9
Florida Atlantic,961.7322,5,119
Florida International,1164.5428,6,103
Florida State,1987.5985,5,16
Fresno State,1037.9301,5,114
Georgia,1644.105,5,49
Georgia Southern,1568.2703,4,57
Georgia State,729.7231,5,124
Georgia Tech,1551.4766,6,60
Hawaii,1426.7108,6,75
Houston,1795.3789,5,39
Idaho,947.847,5,121
Illinois,1706.7601,5,41
Indiana,1916.7258,5,24
Iowa,2037.6108,6,12
Iowa State,1464.5821,5,71
Kansas,967.5167,4,118
Kansas State,1850.7294,5,31
Kent State,1371.9285,6,81
Kentucky,1696.0335,4,43
Louisiana Tech,1494.5639,5,66
Louisiana-Lafayette,1183.2321,4,101
Louisiana-Monroe,1087.4121,5,112
Louisville,1371.1741,5,82
LSU,2040.1814,5,11
Marshall,1562.2778,6,58
Maryland,1484.7401,6,68
Massachusetts,1279.6158,5,92
Memphis,2145.8495,5,7
Miami (FL),1680.3599,5,44
Miami (OH),1195.1972,6,99
Michigan,2158.875,6,6
Michigan State,1926.2008,6,22
Middle Tennessee,1199.2644,6,97
Minnesota,1810.4975,6,36
Mississippi State,1834.0324,5,34
Missouri,1587.2064,5,54
Navy,1972.325,5,18
Nebraska,1548.7082,6,61
Nevada,1109.3573,6,108
New Mexico,1113.2611,6,107
New Mexico State,541.2828,5,126
North Carolina,1670.9389,5,45
North Carolina State,1490.2261,5,67
North Texas,391.2363,5,128
Northern Illinois,1522.0977,6,63
Northwestern,2269.6581,5,1
Notre Dame,1988.6097,6,15
Ohio,1868.5741,5,27
Ohio State,2063.9624,6,10
Oklahoma,1862.9547,5,28
Oklahoma State,1937.0762,5,19
Old Dominion,1109.316,5,109
Ole Miss,1921.7412,5,23
Oregon,1356.4096,5,84
Oregon State,1628.8997,5,50
Penn State,1851.9449,6,30
Pittsburgh,1874.3545,4,25
Purdue,1099.8968,6,111
Rice,1241.6821,6,96
Rutgers,1247.3676,5,94
San Diego State,1280.7912,6,91
San Jose State,1140.5494,5,106
SMU,1107.4949,5,110
South Alabama,1143.8487,5,105
South Carolina,1403.2121,6,78
South Florida,1191.6932,5,100
Southern Miss,1244.4991,6,95
Stanford,1975.396,5,17
Syracuse,1699.4719,4,42
TCU,2262.0417,5,2
Temple,2174.054,5,5
Tennessee,1802.2028,5,37
Texas,1600.3131,6,52
Texas A&M,2008.954,5,14
Texas State,1017.758,5,116
Texas Tech,1858.8382,5,29
Toledo,1835.9034,5,33
Troy,978.5852,4,117
Tulane,1158.6753,5,104
Tulsa,1404.1742,5,76
UCF,675.1919,6,125
UCLA,2027.3456,5,13
UNLV,1396.015,6,79
USC,1795.9742,5,38
Utah,2199.5236,5,4
Utah State,1253.7149,5,93
UTEP,1026.3709,6,115
UTSA,1080.2192,6,113
Vanderbilt,1308.8648,5,85
Virginia,1287.6537,5,90
Virginia Tech,1449.2197,6,73
Wake Forest,1360.3892,6,83
Washington,1595.8374,4,53
Washington State,1196.1594,5,98
West Virginia,1932.9408,5,21
Western Kentucky,1667.7322,6,46
Western Michigan,1439.2831,5,74
Wisconsin,1578.5647,6,55
Wyoming,498.8391,6,127
