Team,Previous.Score,Score,Rank
Air Force,1672.113008,1672.113008,61
Akron,1600.353191,1600.353191,77
Alabama,2070.604839,2070.604839,15
Appalachian State,1597.998598,1597.998598,78
Arizona,1624.427194,1624.427194,73
Arizona State,1928.532782,1928.532782,29
Arkansas,1931.174078,1931.174078,28
Arkansas State,1546.142341,1546.142341,84
Army,1553.884709,1553.884709,83
Auburn,1857.026784,1857.026784,39
Ball State,1557.439992,1557.439992,82
Baylor,2818.25284,2818.25284,1
Boise State,1777.846046,1777.846046,50
Boston College,1752.905538,1752.905538,53
Bowling Green,1658.052134,1658.052134,65
Buffalo,1476.957708,1476.957708,88
BYU,1903.568455,1903.568455,30
California,1796.007343,1796.007343,47
Central Michigan,1735.952416,1735.952416,55
Charlotte,1161.708735,1161.708735,115
Cincinnati,1820.348367,1820.348367,44
Clemson,1976.435587,1976.435587,22
Colorado,1474.416533,1474.416533,89
Colorado State,1433.674454,1433.674454,93
Connecticut,1636.431799,1636.431799,71
Duke,1891.711325,1891.711325,32
East Carolina,1888.165997,1888.165997,33
Eastern Michigan,1165.920036,1165.920036,114
Florida,2114.201903,2114.201903,10
Florida Atlantic,1314.422387,1314.422387,104
Florida International,1088.216307,1088.216307,120
Florida State,2008.846493,2008.846493,18
Fresno State,671.8837611,671.8837611,127
Georgia,1882.353985,1882.353985,35
Georgia Southern,1535.653478,1535.653478,86
Georgia State,1128.30601,1128.30601,117
Georgia Tech,1673.49266,1673.49266,60
Hawaii,1544.460602,1544.460602,85
Houston,1897.279973,1897.279973,31
Idaho,1172.088794,1172.088794,111
Illinois,1643.666209,1643.666209,69
Indiana,1800.344908,1800.344908,46
Iowa,1970.595987,1970.595987,24
Iowa State,1682.884081,1682.884081,59
Kansas,1201.280165,1201.280165,108
Kansas State,1836.916724,1836.916724,41
Kent State,1413.070528,1413.070528,94
Kentucky,1878.788512,1878.788512,36
Louisiana Tech,1652.89095,1652.89095,67
Louisiana-Lafayette,1060.397373,1060.397373,122
Louisiana-Monroe,878.2490195,878.2490195,124
Louisville,1826.791189,1826.791189,42
LSU,2131.075577,2131.075577,9
Marshall,1573.311482,1573.311482,80
Maryland,1134.644439,1134.644439,116
Massachusetts,1275.67605,1275.67605,105
Memphis,1864.058904,1864.058904,38
Miami (FL),1661.886171,1661.886171,64
Miami (OH),1325.456367,1325.456367,102
Michigan,2252.190056,2252.190056,6
Michigan State,2023.141925,2023.141925,17
Middle Tennessee,1565.375552,1565.375552,81
Minnesota,1644.306248,1644.306248,68
Mississippi State,2043.239883,2043.239883,16
Missouri,1768.107992,1768.107992,51
Navy,2401.706142,2401.706142,3
Nebraska,1666.255245,1666.255245,63
Nevada,1380.797361,1380.797361,97
New Mexico,1222.922145,1222.922145,106
New Mexico State,1085.814961,1085.814961,121
North Carolina,1788.888658,1788.888658,49
North Carolina State,1726.552015,1726.552015,57
North Texas,753.020908,753.020908,126
Northern Illinois,1604.571983,1604.571983,75
Northwestern,2370.680182,2370.680182,4
Notre Dame,1949.511914,1949.511914,26
Ohio,1668.447298,1668.447298,62
Ohio State,1999.098835,1999.098835,19
Oklahoma,2244.384047,2244.384047,7
Oklahoma State,1884.438187,1884.438187,34
Old Dominion,1222.186396,1222.186396,107
Ole Miss,1971.824878,1971.824878,23
Oregon,1957.257645,1957.257645,25
Oregon State,1595.462532,1595.462532,79
Penn State,1793.443726,1793.443726,48
Pittsburgh,1870.787172,1870.787172,37
Purdue,1356.533126,1356.533126,99
Rice,1180.076642,1180.076642,110
Rutgers,1472.021022,1472.021022,90
San Diego State,1167.644796,1167.644796,113
San Jose State,1168.424011,1168.424011,112
SMU,1361.359061,1361.359061,98
South Alabama,1336.225472,1336.225472,101
South Carolina,1654.45219,1654.45219,66
South Florida,602.4876949,602.4876949,128
Southern Miss,1457.252166,1457.252166,92
Stanford,2222.371277,2222.371277,8
Syracuse,1844.571496,1844.571496,40
TCU,2103.895441,2103.895441,11
Temple,2081.688155,2081.688155,13
Tennessee,1985.665065,1985.665065,21
Texas,1733.697791,1733.697791,56
Texas A&M,2297.854675,2297.854675,5
Texas State,1325.382341,1325.382341,103
Texas Tech,2102.138795,2102.138795,12
Toledo,1997.84619,1997.84619,20
Troy,1194.370043,1194.370043,109
Tulane,1346.874177,1346.874177,100
Tulsa,1515.254453,1515.254453,87
UCF,1115.873691,1115.873691,119
UCLA,1821.55283,1821.55283,43
UNLV,1465.045616,1465.045616,91
USC,2080.227013,2080.227013,14
Utah,2422.497314,2422.497314,2
Utah State,1602.194817,1602.194817,76
UTEP,1126.39242,1126.39242,118
UTSA,1412.008578,1412.008578,95
Vanderbilt,1642.106057,1642.106057,70
Virginia,1394.853792,1394.853792,96
Virginia Tech,1736.753811,1736.753811,54
Wake Forest,1606.202183,1606.202183,74
Washington,1763.747274,1763.747274,52
Washington State,1626.607293,1626.607293,72
West Virginia,1944.287788,1944.287788,27
Western Kentucky,1709.446246,1709.446246,58
Western Michigan,928.3337526,928.3337526,123
Wisconsin,1815.594694,1815.594694,45
Wyoming,827.8545183,827.8545183,125
